{
  "page-properties": {
    "name": "Products blessed",
    "title": "Products &amp; Services",
    "description": "Page about different products and services we currently have to offer",
    "keywords": [
      "single page apps",
      "single page application development",
      "application architecture",
      "application graphic design"
    ]
  },
  "products": [
    {
      "id": "automateID-Replacement-via-js",
      "name": "single page app for product advertising & marketing",
      "description": "advertising and marketing applications",
      "product-image": "full/path/someting.jpg"
    },
    {
      "id": "automateID-Replacement-via-js",
      "name": "single page app design",
      "description": "responsive design for single page applications, illustration and graphic design",
      "product-image": "full/path/someting.jpg"
    },
    {
      "id": "automateID-Replacement-via-js",
      "name": "single page app code",
      "description": "code just code",
      "product-image": "full/path/someting.jpg"
    },
    {
      "id": "automateID-Replacement-via-js",
      "name": "single page app development",
      "description": "code & responsive design for single page applications, illustration and graphic design",
      "product-image": "full/path/someting.jpg"
    },
    {
      "id": "automateID-Replacement-via-js",
      "name": "single page app hosting",
      "description": "code, hosting & responsive design for single page applications, illustration and graphic design",
      "product-image": "full/path/someting.jpg"
    }
  ]
}
